---- Minecraft Crash Report ----
// This is a token for 1 free hug. Redeem at your nearest Mojangsta: [~~HUG~~]

Time: 2020-05-21 19:10:35 CDT
Description: Initializing game

java.lang.RuntimeException: Invalid id 4096 - maximum id range exceeded.
    at net.minecraftforge.registries.ForgeRegistry.add(ForgeRegistry.java:295)
    at net.minecraftforge.registries.ForgeRegistry.add(ForgeRegistry.java:281)
    at net.minecraftforge.registries.ForgeRegistry.register(ForgeRegistry.java:113)
    at net.minecraftforge.registries.ForgeRegistry.registerAll(ForgeRegistry.java:154)
    at com.kashdeya.tinyprogressions.registry.InternalRegistry.onRegisterBlock(InternalRegistry.java:187)
    at net.minecraftforge.fml.common.eventhandler.ASMEventHandler_1020_InternalRegistry_onRegisterBlock_Register.invoke(.dynamic)
    at net.minecraftforge.fml.common.eventhandler.ASMEventHandler.invoke(ASMEventHandler.java:90)
    at net.minecraftforge.fml.common.eventhandler.EventBus$1.invoke(EventBus.java:144)
    at net.minecraftforge.fml.common.eventhandler.EventBus.post(EventBus.java:182)
    at net.minecraftforge.registries.GameData.fireRegistryEvents(GameData.java:845)
    at net.minecraftforge.fml.common.Loader.preinitializeMods(Loader.java:630)
    at net.minecraftforge.fml.client.FMLClientHandler.beginMinecraftLoading(FMLClientHandler.java:252)
    at net.minecraft.client.Minecraft.init(Minecraft.java:467)
    at net.minecraft.client.Minecraft.run(Minecraft.java:3931)
    at net.minecraft.client.main.Main.main(SourceFile:123)
    at sun.reflect.NativeMethodAccessorImpl.invoke0(Native Method)
    at sun.reflect.NativeMethodAccessorImpl.invoke(NativeMethodAccessorImpl.java:62)
    at sun.reflect.DelegatingMethodAccessorImpl.invoke(DelegatingMethodAccessorImpl.java:43)
    at java.lang.reflect.Method.invoke(Method.java:498)
    at net.minecraft.launchwrapper.Launch.launch(Launch.java:135)
    at net.minecraft.launchwrapper.Launch.main(Launch.java:28)
    at sun.reflect.NativeMethodAccessorImpl.invoke0(Native Method)
    at sun.reflect.NativeMethodAccessorImpl.invoke(NativeMethodAccessorImpl.java:62)
    at sun.reflect.DelegatingMethodAccessorImpl.invoke(DelegatingMethodAccessorImpl.java:43)
    at java.lang.reflect.Method.invoke(Method.java:498)
    at org.multimc.onesix.OneSixLauncher.launchWithMainClass(OneSixLauncher.java:196)
    at org.multimc.onesix.OneSixLauncher.launch(OneSixLauncher.java:231)
    at org.multimc.EntryPoint.listen(EntryPoint.java:143)
    at org.multimc.EntryPoint.main(EntryPoint.java:34)


A detailed walkthrough of the error, its code path and all known details is as follows:
---------------------------------------------------------------------------------------

-- System Details --
  Minecraft Version: 1.12.2
  Operating System: Linux (amd64) version 5.6.11-1-MANJARO
  Java Version: 1.8.0_242, Oracle Corporation
  Java VM Version: OpenJDK 64-Bit Server VM (mixed mode), Oracle Corporation
  Memory: 1083647904 bytes (1033 MB) / 2248146944 bytes (2144 MB) up to 8589934592 bytes (8192 MB)
  JVM Flags: 12 total; -XX:+UseG1GC -XX:+UnlockExperimentalVMOptions -XX:G1NewSizePercent=20 -XX:G1ReservePercent=20 -XX:MaxGCPauseMillis=50 -XX:G1HeapRegionSize=32M -XX:+UseStringDeduplication -XX:+UseFastAccessorMethods -XX:+OptimizeStringConcat -XX:+UseCompressedOops -Xms512m -Xmx8192m
  IntCache: cache: 0, tcache: 0, allocated: 0, tallocated: 0
  FML: MCP 9.42 Powered by Forge 14.23.5.2846 269 mods loaded, 269 mods active
       States: 'U' = Unloaded 'L' = Loaded 'C' = Constructed 'H' = Pre-initialized 'I' = Initialized 'J' = Post-initialized 'A' = Available 'D' = Disabled 'E' = Errored
       
       | State | ID                                | Version                  | Source                                             | Signature                                |
       |:----- |:--------------------------------- |:------------------------ |:-------------------------------------------------- |:---------------------------------------- |
       | LCH   | minecraft                         | 1.12.2                   | minecraft.jar                                      | None                                     |
       | LCH   | mcp                               | 9.42                     | minecraft.jar                                      | None                                     |
       | LCH   | FML                               | 8.0.99.99                | forge-1.12.2-14.23.5.2846-universal.jar            | None                                     |
       | LCH   | forge                             | 14.23.5.2846             | forge-1.12.2-14.23.5.2846-universal.jar            | None                                     |
       | LCH   | smoothfontcore                    | mc1.12.2-2.1.1           | minecraft.jar                                      | None                                     |
       | LCH   | openmodscore                      | 0.12.2                   | minecraft.jar                                      | None                                     |
       | LCH   | foamfixcore                       | 7.7.4                    | minecraft.jar                                      | None                                     |
       | LCH   | randompatches                     | 1.12.2-1.18.2.1          | randompatches-1.12.2-1.18.2.1.jar                  | None                                     |
       | LCH   | smoothfont                        | mc1.12.2-2.1.1           | SmoothFont-mc1.12.2-2.1.1.jar                      | None                                     |
       | LCH   | fastbench                         | 1.7.2                    | FastWorkbench-1.12.2-1.7.2.jar                     | None                                     |
       | LCH   | actuallyadditions                 | 1.12.2-r150              | ActuallyAdditions-1.12.2-r150.jar                  | None                                     |
       | LCH   | baubles                           | 1.5.2                    | Baubles-1.12-1.5.2.jar                             | None                                     |
       | LCH   | actuallybaubles                   | 1.1                      | ActuallyBaubles-1.12-1.1.jar                       | None                                     |
       | LCH   | ctm                               | MC1.12.2-0.3.3.22        | CTM-MC1.12.2-0.3.3.22.jar                          | None                                     |
       | LCH   | appliedenergistics2               | rv6-stable-7             | appliedenergistics2-rv6-stable-7.jar               | dfa4d3ac143316c6f32aa1a1beda1e34d42132e5 |
       | LCH   | bdlib                             | 1.14.3.12                | bdlib-1.14.3.12-mc1.12.2.jar                       | None                                     |
       | LCH   | ae2stuff                          | 0.7.0.4                  | ae2stuff-0.7.0.4-mc1.12.2.jar                      | None                                     |
       | LCH   | endercore                         | 1.12.2-0.5.69            | EnderCore-1.12.2-0.5.69.jar                        | None                                     |
       | LCH   | crafttweaker                      | 4.1.19                   | CraftTweaker2-1.12-4.1.19.jar                      | None                                     |
       | LCH   | mtlib                             | 3.0.6                    | MTLib-3.0.6.jar                                    | None                                     |
       | LCH   | modtweaker                        | 4.0.17                   | modtweaker-4.0.17.jar                              | None                                     |
       | LCH   | jei                               | 4.15.0.289               | jei_1.12.2-4.15.0.289.jar                          | None                                     |
       | LCH   | thaumcraft                        | 6.1.BETA26               | Thaumcraft-1.12.2-6.1.BETA26.jar                   | None                                     |
       | LCH   | codechickenlib                    | 3.2.3.358                | CodeChickenLib-1.12.2-3.2.3.358-universal.jar      | f1850c39b2516232a2108a7bd84d1cb5df93b261 |
       | LCH   | redstoneflux                      | 2.1.0                    | RedstoneFlux-1.12-2.1.0.6-universal.jar            | 8a6abf2cb9e141b866580d369ba6548732eff25f |
       | LCH   | cofhcore                          | 4.6.3                    | CoFHCore-1.12.2-4.6.3.27-universal.jar             | None                                     |
       | LCH   | brandonscore                      | 2.4.17                   | BrandonsCore-1.12.2-2.4.17.208-universal.jar       | None                                     |
       | LCH   | cofhworld                         | 1.3.1                    | CoFHWorld-1.12.2-1.3.1.7-universal.jar             | 8a6abf2cb9e141b866580d369ba6548732eff25f |
       | LCH   | thermalfoundation                 | 2.6.3                    | ThermalFoundation-1.12.2-2.6.3.27-universal.jar    | 8a6abf2cb9e141b866580d369ba6548732eff25f |
       | LCH   | draconicevolution                 | 2.3.24                   | Draconic-Evolution-1.12.2-2.3.24.349-universal.jar | None                                     |
       | LCH   | thermalexpansion                  | 5.5.4                    | ThermalExpansion-1.12.2-5.5.4.43-universal.jar     | 8a6abf2cb9e141b866580d369ba6548732eff25f |
       | LCH   | enderio                           | 5.1.51                   | EnderIO-1.12.2-5.1.51.jar                          | None                                     |
       | LCH   | mantle                            | 1.12-1.3.3.55            | Mantle-1.12-1.3.3.55.jar                           | None                                     |
       | LCH   | projecte                          | 1.12-PE1.3.2h            | ProjectE-1.12-PE1.3.2h.jar                         | None                                     |
       | LCH   | chisel                            | MC1.12.2-0.2.1.35        | Chisel-MC1.12.2-0.2.1.35.jar                       | None                                     |
       | LCH   | enderiointegrationtic             | 5.1.51                   | EnderIO-1.12.2-5.1.51.jar                          | None                                     |
       | LCH   | tconstruct                        | 1.12.2-2.12.0.157        | TConstruct-1.12.2-2.12.0.157.jar                   | None                                     |
       | LCH   | p455w0rdslib                      | 2.2.156                  | p455w0rdslib-1.12.2-2.2.156.jar                    | 186bc454cd122c9c2f1aa4f95611254bcc543363 |
       | LCH   | ae2wtlib                          | 1.0.30                   | AE2WTLib-1.12.2-1.0.30.jar                         | 186bc454cd122c9c2f1aa4f95611254bcc543363 |
       | LCH   | akashictome                       | 1.2-12                   | AkashicTome-1.2-12.jar                             | None                                     |
       | LCH   | extrautils2                       | 1.0                      | extrautils2-1.12-1.9.9.jar                         | None                                     |
       | LCH   | flyringbaublemod                  | 0.3.1_1.12-d4e654e       | angelRingToBauble-1.12-0.3.1.50+d4e654e.jar        | None                                     |
       | LCH   | appleskin                         | 1.0.9                    | AppleSkin-mc1.12-1.0.9.jar                         | None                                     |
       | LCH   | architecturecraft                 | @VERSION@                | architecturecraft-1.12-3.98.jar                    | None                                     |
       | LCH   | attributefix                      | 1.0.4                    | AttributeFix-1.12.2-1.0.4.jar                      | d476d1b22b218a10d845928d1665d45fce301b27 |
       | LCH   | morphtool                         | 1.2-21                   | Morph-o-Tool-1.2-21.jar                            | None                                     |
       | LCH   | autoreglib                        | 1.3-32                   | AutoRegLib-1.3-32.jar                              | None                                     |
       | LCH   | avaritia                          | 3.3.0                    | Avaritia-1.12.2-3.3.0.33-universal.jar             | None                                     |
       | LCH   | badwithernocookiereloaded         | 1.12.2-3.3.16            | badwithernocookiereloaded-1.12.2-3.3.16.jar        | None                                     |
       | LCH   | base                              | 3.13.0                   | base-1.12.2-3.13.0.jar                             | None                                     |
       | LCH   | betterbuilderswands               | 0.13.2                   | BetterBuildersWands-1.12.2-0.13.2.271+5997513.jar  | None                                     |
       | LCH   | blockcraftery                     | 1.12.2-1.3.1             | blockcraftery-1.12.2-1.3.1.jar                     | None                                     |
       | LCH   | bonsaitrees                       | 1.1.3                    | bonsaitrees-1.1.3-b156.jar                         | None                                     |
       | LCH   | bookshelf                         | 2.3.585                  | Bookshelf-1.12.2-2.3.585.jar                       | d476d1b22b218a10d845928d1665d45fce301b27 |
       | LCH   | botania                           | r1.10-362                | Botania r1.10-362.jar                              | None                                     |
       | LCH   | buildcraftlib                     | 7.99.24.2                | buildcraft-all-7.99.24.2.jar                       | None                                     |
       | LCH   | buildcraftcore                    | 7.99.24.2                | buildcraft-all-7.99.24.2.jar                       | None                                     |
       | LCH   | buildcraftbuilders                | 7.99.24.2                | buildcraft-all-7.99.24.2.jar                       | None                                     |
       | LCH   | buildcrafttransport               | 7.99.24.2                | buildcraft-all-7.99.24.2.jar                       | None                                     |
       | LCH   | buildcraftsilicon                 | 7.99.24.2                | buildcraft-all-7.99.24.2.jar                       | None                                     |
       | LCH   | theoneprobe                       | 1.4.28                   | theoneprobe-1.12-1.4.28.jar                        | None                                     |
       | LCH   | buildcraftcompat                  | 7.99.24.2                | buildcraft-all-7.99.24.2.jar                       | None                                     |
       | LCH   | buildcraftenergy                  | 7.99.24.2                | buildcraft-all-7.99.24.2.jar                       | None                                     |
       | LCH   | buildcraftfactory                 | 7.99.24.2                | buildcraft-all-7.99.24.2.jar                       | None                                     |
       | LCH   | buildcraftrobotics                | 7.99.24.2                | buildcraft-all-7.99.24.2.jar                       | None                                     |
       | LCH   | buildinggadgets                   | 2.7.3                    | BuildingGadgets-2.7.3.jar                          | None                                     |
       | LCH   | ceramics                          | 1.12-1.3.7               | Ceramics-1.12-1.3.7.jar                            | None                                     |
       | LCH   | chameleon                         | 1.12-4.1.3               | Chameleon-1.12-4.1.3.jar                           | None                                     |
       | LCH   | chancecubes                       | 1.12.2-4.1.0.300         | ChanceCubes-1.12.2-4.1.0.300.jar                   | None                                     |
       | LCH   | chesttransporter                  | 2.8.8                    | ChestTransporter-1.12.2-2.8.8.jar                  | None                                     |
       | LCH   | chickens                          | 6.1.0                    | chickens-6.1.0.jar                                 | None                                     |
       | LCH   | chiselsandbits                    | 14.33                    | chiselsandbits-14.33.jar                           | None                                     |
       | LCH   | clienttweaks                      | 3.1.11                   | ClientTweaks_1.12.2-3.1.11.jar                     | None                                     |
       | LCH   | shadowmc                          | 3.8.0                    | ShadowMC-1.12-3.8.0.jar                            | None                                     |
       | LCH   | clipboard                         | @VERSION@                | Clipboard-1.12-1.3.0.jar                           | None                                     |
       | LCH   | clumps                            | 3.1.2                    | Clumps-3.1.2.jar                                   | None                                     |
       | LCH   | cyclopscore                       | 1.5.0                    | CyclopsCore-1.12.2-1.5.0.jar                       | bd0353b3e8a2810d60dd584e256e364bc3bedd44 |
       | LCH   | commoncapabilities                | 2.4.4                    | CommonCapabilities-1.12.2-2.4.4.jar                | bd0353b3e8a2810d60dd584e256e364bc3bedd44 |
       | LCH   | refinedstorage                    | 1.6.15                   | refinedstorage-1.6.15.jar                          | 57893d5b90a7336e8c63fe1c1e1ce472c3d59578 |
       | LCH   | compactmachines3                  | 3.0.18                   | compactmachines3-1.12.2-3.0.18-b278.jar            | None                                     |
       | LCH   | contenttweaker                    | 1.12.2-4.9.1             | ContentTweaker-1.12.2-4.9.1.jar                    | None                                     |
       | LCH   | controlling                       | 3.0.7                    | Controlling-3.0.7.jar                              | None                                     |
       | LCH   | cookingforblockheads              | 6.4.71                   | CookingForBlockheads_1.12.2-6.4.71.jar             | None                                     |
       | LCH   | craftingtweaks                    | 8.1.9                    | CraftingTweaks_1.12.2-8.1.9.jar                    | None                                     |
       | LCH   | craftpresence                     | v1.5.5                   | CraftPresence-1.12.2-1.5.5.jar                     | eca02c6a597321ad22340897683951ba5c76720a |
       | LCH   | ctgui                             | 1.0.0                    | CraftTweaker2-1.12-4.1.19.jar                      | None                                     |
       | LCH   | crafttweakerjei                   | 2.0.3                    | CraftTweaker2-1.12-4.1.19.jar                      | None                                     |
       | LCH   | cucumber                          | 1.1.3                    | Cucumber-1.12.2-1.1.3.jar                          | None                                     |
       | LCH   | custommainmenu                    | 2.0.9                    | CustomMainMenu-MC1.12.2-2.0.9.jar                  | None                                     |
       | LCH   | cxlibrary                         | 1.6.1                    | cxlibrary-1.12.1-1.6.1.jar                         | None                                     |
       | LCH   | cyclicmagic                       | 1.19.16                  | Cyclic-1.12.2-1.19.16.jar                          | 1bc8f8dbe770187a854cef35dad0ff40ba441bbe |
       | LCH   | mousetweaks                       | 2.10                     | MouseTweaks-2.10-mc1.12.2.jar                      | None                                     |
       | LCH   | danknull                          | 1.6.80                   | DankNull-1.12.2-1.6.80.jar                         | 186bc454cd122c9c2f1aa4f95611254bcc543363 |
       | LCH   | darkutils                         | 1.8.226                  | DarkUtils-1.12.2-1.8.226.jar                       | d476d1b22b218a10d845928d1665d45fce301b27 |
       | LCH   | deepmoblearning                   | 1.12.2-2.5.2             | deepmoblearning-1.12.2-2.5.2-universal.jar         | None                                     |
       | LCH   | defaultoptions                    | 9.2.8                    | DefaultOptions_1.12.2-9.2.8.jar                    | None                                     |
       | LCH   | diethopper                        | 1.1                      | diethopper-1.1.jar                                 | None                                     |
       | LCH   | enderiobase                       | 5.1.51                   | EnderIO-1.12.2-5.1.51.jar                          | None                                     |
       | LCH   | enderioconduits                   | 5.1.51                   | EnderIO-1.12.2-5.1.51.jar                          | None                                     |
       | LCH   | enderioconduitsappliedenergistics | 5.1.51                   | EnderIO-1.12.2-5.1.51.jar                          | None                                     |
       | LCH   | enderioconduitsopencomputers      | 5.1.51                   | EnderIO-1.12.2-5.1.51.jar                          | None                                     |
       | LCH   | enderioconduitsrefinedstorage     | 5.1.51                   | EnderIO-1.12.2-5.1.51.jar                          | None                                     |
       | LCH   | enderiointegrationforestry        | 5.1.51                   | EnderIO-1.12.2-5.1.51.jar                          | None                                     |
       | LCH   | enderiointegrationticlate         | 5.1.51                   | EnderIO-1.12.2-5.1.51.jar                          | None                                     |
       | LCH   | ftblib                            | 5.4.1.99                 | FTBLib-5.4.1.99.jar                                | None                                     |
       | LCH   | enderiomachines                   | 5.1.51                   | EnderIO-1.12.2-5.1.51.jar                          | None                                     |
       | LCH   | enderiopowertools                 | 5.1.51                   | EnderIO-1.12.2-5.1.51.jar                          | None                                     |
       | LCH   | enderioendergy                    | 5.1.51                   | EnderIO-endergy-1.12.2-5.1.51.jar                  | None                                     |
       | LCH   | enderstorage                      | 2.4.6.137                | EnderStorage-1.12.2-2.4.6.137-universal.jar        | f1850c39b2516232a2108a7bd84d1cb5df93b261 |
       | LCH   | valkyrielib                       | 1.12.2-2.0.20.1          | valkyrielib-1.12.2-2.0.20.1.jar                    | None                                     |
       | LCH   | environmentaltech                 | 1.12.2-2.0.20.1          | environmentaltech-1.12.2-2.0.20.1.jar              | None                                     |
       | LCH   | mekanism                          | 1.12.2-9.8.1.383         | Mekanism-1.12.2-9.8.1.383.jar                      | None                                     |
       | LCH   | immersiveengineering              | 0.12-91                  | ImmersiveEngineering-0.12-91.jar                   | 4cb49fcde3b43048c9889e0a3d083225da926334 |
       | LCH   | exchangers                        | 1.12.2-2.8               | Exchangers-1.12.2-2.8.jar                          | 4ffa87db52cf086d00ecc4853a929367b1c39b5c |
       | LCH   | forgelin                          | 1.8.4                    | Forgelin-1.8.4.jar                                 | None                                     |
       | LCH   | oreberries                        | 0.5.0                    | oreberries-1.12.x-0.5.0.jar                        | None                                     |
       | LCH   | exnihilocreatio                   | 1.12.2-0.4.7.1           | exnihilocreatio-1.12.2-0.4.7.1.jar                 | None                                     |
       | LCH   | excompressum                      | 3.0.31                   | ExCompressum_1.12.2-3.0.31.jar                     | None                                     |
       | LCH   | hammercore                        | 2.0.4.7                  | HammerCore-1.12.2-2.0.4.7.jar                      | 4d7b29cd19124e986da685107d16ce4b49bc0a97 |
       | LCH   | expequiv                          | 12r                      | ExpandedEquivalence-1.12.2-12r.jar                 | 4d7b29cd19124e986da685107d16ce4b49bc0a97 |
       | LCH   | extracells                        | 2.6.3                    | ExtraCells-1.12.2-2.6.3aNIGHTLY.jar                | None                                     |
       | LCH   | zerocore                          | 1.12-0.1.2.3             | zerocore-1.12-0.1.2.3.jar                          | None                                     |
       | LCH   | bigreactors                       | 1.12.2-0.4.5.50          | ExtremeReactors-1.12.2-0.4.5.50.jar                | None                                     |
       | LCH   | farmingforblockheads              | 3.1.28                   | FarmingForBlockheads_1.12.2-3.1.28.jar             | None                                     |
       | LCH   | fasterladderclimbing              | 0.1-146                  | FasterLadderClimbing-1.12-0.1-146.jar              | None                                     |
       | LCH   | fastfurnace                       | 1.3.1                    | FastFurnace-1.12.2-1.3.1.jar                       | None                                     |
       | LCH   | fastleafdecay                     | v14                      | FastLeafDecay-v14.jar                              | None                                     |
       | LCH   | flatcoloredblocks                 | mc1.12-6.8               | flatcoloredblocks-mc1.12-6.8.jar                   | None                                     |
       | LCH   | sonarcore                         | 5.0.19                   | sonarcore-1.12.2-5.0.19-20.jar                     | None                                     |
       | LCH   | fluxnetworks                      | 4.0.6                    | fluxnetworks-1.12.2-4.0.7-24.jar                   | None                                     |
       | LCH   | foamfix                           | 0.10.5-1.12.2            | foamfix-0.10.5-1.12.2.jar                          | None                                     |
       | LCH   | forgemultipartcbe                 | 2.6.2.83                 | ForgeMultipart-1.12.2-2.6.2.83-universal.jar       | f1850c39b2516232a2108a7bd84d1cb5df93b261 |
       | LCH   | microblockcbe                     | 2.6.2.83                 | ForgeMultipart-1.12.2-2.6.2.83-universal.jar       | None                                     |
       | LCH   | minecraftmultipartcbe             | 2.6.2.83                 | ForgeMultipart-1.12.2-2.6.2.83-universal.jar       | None                                     |
       | LCH   | framland                          | 1.12.2-1.0.10            | framland-1.12.2-1.0.10.jar                         | None                                     |
       | LCH   | ftblaunchernotifier               | 1.0.0                    | FTBLauncherNotifier-1.0.1.jar                      | None                                     |
       | LCH   | ftbutilities                      | 5.4.0.96                 | FTBUtilities-5.4.0.96.jar                          | None                                     |
       | LCH   | itemfilters                       | 1.0.3.12                 | ItemFilters-1.0.3.12.jar                           | None                                     |
       | LCH   | ftbquests                         | 1.5.1.146                | FTBQuests-1.5.1.146.jar                            | None                                     |
       | LCH   | ftbbackups                        | 0.0.0.ftbbackups         | FTBUtilitiesBackups-1.0.0.4.jar                    | None                                     |
       | LCH   | fw                                | 1.6.0                    | FullscreenWindowed-1.12-1.6.0.jar                  | None                                     |
       | LCH   | gasconduits                       | 1.12.2-1.2.1             | GasConduits-1.12.2-1.2.2.jar                       | None                                     |
       | LCH   | advgenerators                     | 0.9.20.12                | generators-0.9.20.12-mc1.12.2.jar                  | None                                     |
       | LCH   | ichunutil                         | 7.2.1                    | iChunUtil-1.12.2-7.2.1.jar                         | 4db5c2bd1b556f252a5b8b54b256d381b2a0a6b8 |
       | LCH   | googlyeyes                        | 7.1.0                    | GooglyEyes-1.12.2-7.1.0.jar                        | 4db5c2bd1b556f252a5b8b54b256d381b2a0a6b8 |
       | LCH   | gravestone                        | 1.10.3                   | gravestone-1.10.3.jar                              | None                                     |
       | LCH   | hatchery                          | 2.2.2                    | hatchery-1.12.2-2.2.2.jar                          | None                                     |
       | LCH   | teslacorelib                      | 1.0.15                   | tesla-core-lib-1.12.2-1.0.15.jar                   | d476d1b22b218a10d845928d1665d45fce301b27 |
       | LCH   | industrialforegoing               | 1.12.2-1.12.2            | industrialforegoing-1.12.2-1.12.13-237.jar         | None                                     |
       | LCH   | industrialmeat                    | 1.12-1.0.2               | industrialmeat-1.12-1.0.2.jar                      | None                                     |
       | LCH   | integrateddynamics                | 1.1.0                    | IntegratedDynamics-1.12.2-1.1.0.jar                | bd0353b3e8a2810d60dd584e256e364bc3bedd44 |
       | LCH   | integrateddynamicscompat          | 1.0.0                    | IntegratedDynamics-1.12.2-1.1.0.jar                | None                                     |
       | LCH   | integratedtunnels                 | 1.6.10                   | IntegratedTunnels-1.12.2-1.6.10.jar                | bd0353b3e8a2810d60dd584e256e364bc3bedd44 |
       | LCH   | integratedtunnelscompat           | 1.0.0                    | IntegratedTunnels-1.12.2-1.6.10.jar                | None                                     |
       | LCH   | mysticalagriculture               | 1.7.5                    | MysticalAgriculture-1.12.2-1.7.5.jar               | None                                     |
       | LCH   | mysticalagradditions              | 1.3.2                    | MysticalAgradditions-1.12.2-1.3.2.jar              | None                                     |
       | LCH   | nuclearcraft                      | 2.18t                    | NuclearCraft-2.18t-1.12.2.jar                      | None                                     |
       | LCH   | harvestcraft                      | 1.12.2zb                 | Pam's HarvestCraft 1.12.2zf.jar                    | None                                     |
       | LCH   | mcjtylib_ng                       | 3.5.4                    | mcjtylib-1.12-3.5.4.jar                            | None                                     |
       | LCH   | rftools                           | 7.72                     | rftools-1.12-7.72.jar                              | None                                     |
       | LCH   | integrationforegoing              | 1.12.2-1.9               | IntegrationForegoing-1.12.2-1.9.jar                | 4ffa87db52cf086d00ecc4853a929367b1c39b5c |
       | LCH   | inventorytweaks                   | 1.64+dev.146.2180b27     | InventoryTweaks-1.64+dev.146.jar                   | 55d2cd4f5f0961410bf7b91ef6c6bf00a766dcbe |
       | LCH   | ironbackpacks                     | 1.12.2-3.0.8-12          | IronBackpacks-1.12.2-3.0.8-12.jar                  | None                                     |
       | LCH   | ironchest                         | 1.12.2-7.0.67.844        | ironchest-1.12.2-7.0.72.847.jar                    | None                                     |
       | LCH   | jehc                              | 1.6.4                    | jehc-1.12.2-1.6.4.jar                              | None                                     |
       | LCH   | jee                               | 1.0.8                    | JustEnoughEnergistics-1.12.2-1.0.8.jar             | None                                     |
       | LCH   | loottweaker                       | 0.0.10                   | LootTweaker-1.12.2-0.0.10.jar                      | None                                     |
       | LCH   | jeresources                       | 0.9.2.60                 | JustEnoughResources-1.12.2-0.9.2.60.jar            | None                                     |
       | LCH   | kleeslabs                         | 5.4.12                   | KleeSlabs_1.12.2-5.4.12.jar                        | None                                     |
       | LCH   | letsencryptcraft                  | @VERSION@                | letsencryptcraft-1.10.2-1.2.0.jar                  | None                                     |
       | LCH   | reborncore                        | 3.16.2.473               | RebornCore-1.12.2-3.16.2.473-universal.jar         | 8727a3141c8ec7f173b87aa78b9b9807867c4e6b |
       | LCH   | mainmenuscale                     | 1.0                      | MainMenuScale-1.3.2.jar                            | None                                     |
       | LCH   | malisiscore                       | 1.12.2-6.5.1-SNAPSHOT    | malisiscore-1.12.2-6.5.1.jar                       | None                                     |
       | LCH   | malisisdoors                      | 1.12.2-7.3.0             | malisisdoors-1.12.2-7.3.0.jar                      | None                                     |
       | LCH   | mekanismgenerators                | 1.12.2-9.8.1.383         | MekanismGenerators-1.12.2-9.8.1.383.jar            | None                                     |
       | LCH   | mekanismtools                     | 1.12.2-9.8.1.383         | MekanismTools-1.12.2-9.8.1.383.jar                 | None                                     |
       | LCH   | mightyenderchicken                | 7.3.0                    | MightyEnderChicken-1.12.2-7.3.0.jar                | 4db5c2bd1b556f252a5b8b54b256d381b2a0a6b8 |
       | LCH   | minetogether                      | unspecified              | minetogether-1.10.2-2.2.0-RC6.jar                  | None                                     |
       | LCH   | minetogetherserver                | unspecified              | minetogether-1.10.2-2.2.0-RC6.jar                  | None                                     |
       | LCH   | missing_pieces                    | 4.3.0                    | missing_pieces-1.12.2-4.3.0.jar                    | None                                     |
       | LCH   | mob_grinding_utils                | 0.3.13                   | MobGrindingUtils-0.3.13.jar                        | None                                     |
       | LCH   | modnametooltip                    | 1.10.1                   | modnametooltip_1.12.2-1.10.1.jar                   | None                                     |
       | LCH   | numina                            | 1.12.2-1.0.38            | Numina-1.12.2-1.0.38.jar                           | None                                     |
       | LCH   | powersuits                        | 1.12.2-1.0.46            | ModularPowersuits-1.12.2-1.0.46.jar                | None                                     |
       | LCH   | techreborn                        | 2.24.1.1032              | TechReborn-1.12.2-2.24.1.1032-universal.jar        | 8727a3141c8ec7f173b87aa78b9b9807867c4e6b |
       | LCH   | morechickens                      | 3.1.0                    | morechickens-1.12.2-3.1.0.jar                      | None                                     |
       | LCH   | morefurnaces                      | 1.10.5                   | MoreFurnaces-1.12.2-1.10.6.jar                     | None                                     |
       | LCH   | moreoverlays                      | 1.15.1                   | moreoverlays-1.15.1-mc1.12.2.jar                   | None                                     |
       | LCH   | morph                             | 7.1.3                    | Morph-1.12.2-7.1.3.jar                             | 4db5c2bd1b556f252a5b8b54b256d381b2a0a6b8 |
       | LCH   | morpheus                          | 1.12.2-3.5.106           | Morpheus-1.12.2-3.5.106.jar                        | None                                     |
       | LCH   | mputils                           | 1.5.6                    | MPUtils-1.12.2-1.5.7.jar                           | None                                     |
       | LCH   | mrtjpcore                         | 2.1.4.43                 | MrTJPCore-1.12.2-2.1.4.43-universal.jar            | None                                     |
       | LCH   | neat                              | 1.4-17                   | Neat 1.4-17.jar                                    | None                                     |
       | LCH   | nmsot                             | 1.2.2-mc1.12.2           | NoMobSpawningOnTrees-1.2.2-mc1.12.2.jar            | None                                     |
       | LCH   | norecipebook                      | 1.2.1                    | noRecipeBook_v1.2.2formc1.12.2.jar                 | None                                     |
       | LCH   | notemastahp                       | 1.0.3                    | NoTemaStahp-1.12.2-1.0.3.jar                       | d476d1b22b218a10d845928d1665d45fce301b27 |
       | LCH   | notenoughwands                    | 1.8.1                    | notenoughwands-1.12-1.8.1.jar                      | None                                     |
       | LCH   | openmods                          | 0.12.2                   | OpenModsLib-1.12.2-0.12.2.jar                      | d2a9a8e8440196e26a268d1f3ddc01b2e9c572a5 |
       | LCH   | openblocks                        | 1.8.1                    | OpenBlocks-1.12.2-1.8.1.jar                        | d2a9a8e8440196e26a268d1f3ddc01b2e9c572a5 |
       | LCH   | oreexcavation                     | 1.4.140                  | OreExcavation-1.4.140.jar                          | None                                     |
       | LCH   | packagedauto                      | 1.12.2-1.0.3.12          | PackagedAuto-1.12.2-1.0.3.12.jar                   | None                                     |
       | LCH   | packcrashinfo                     | %VERSION%                | packcrashinfo-1.0.1.jar                            | None                                     |
       | LCH   | petrock                           | 0.3.1                    | petrock-0.3.1.jar                                  | ac38a3286ab9f4777b0023f0f6280caa9369d575 |
       | LCH   | placebo                           | 1.6.0                    | Placebo-1.12.2-1.6.0.jar                           | None                                     |
       | LCH   | projectred-core                   | 4.9.4.120                | ProjectRed-1.12.2-4.9.4.120-Base.jar               | None                                     |
       | LCH   | psi                               | r1.1-77                  | Psi-r1.1-77.jar                                    | None                                     |
       | LCH   | redstonearsenal                   | 2.6.3                    | RedstoneArsenal-1.12.2-2.6.3.18-universal.jar      | 8a6abf2cb9e141b866580d369ba6548732eff25f |
       | LCH   | thermaldynamics                   | 2.5.5                    | ThermalDynamics-1.12.2-2.5.5.21-universal.jar      | 8a6abf2cb9e141b866580d369ba6548732eff25f |
       | LCH   | simplyjetpacks                    | 2.2.14.67                | SimplyJetpacks2-1.12.2-2.2.14.67.jar               | None                                     |
       | LCH   | plustic                           | 7.1.6.1                  | plustic-7.1.6.1.jar                                | None                                     |
       | LCH   | projectex                         | 1.0.0.10                 | ProjectEX-1.0.0.10.jar                             | None                                     |
       | LCH   | projectintelligence               | 1.0.8                    | ProjectIntelligence-1.12.2-1.0.8.25-universal.jar  | None                                     |
       | LCH   | projectred-compat                 | 1.0                      | ProjectRed-1.12.2-4.9.4.120-compat.jar             | None                                     |
       | LCH   | projectred-integration            | 4.9.4.120                | ProjectRed-1.12.2-4.9.4.120-integration.jar        | None                                     |
       | LCH   | projectred-transmission           | 4.9.4.120                | ProjectRed-1.12.2-4.9.4.120-integration.jar        | None                                     |
       | LCH   | projectred-fabrication            | 4.9.4.120                | ProjectRed-1.12.2-4.9.4.120-fabrication.jar        | None                                     |
       | LCH   | projectred-illumination           | 4.9.4.120                | ProjectRed-1.12.2-4.9.4.120-lighting.jar           | None                                     |
       | LCH   | projectred-expansion              | 4.9.4.120                | ProjectRed-1.12.2-4.9.4.120-mechanical.jar         | None                                     |
       | LCH   | projectred-relocation             | 4.9.4.120                | ProjectRed-1.12.2-4.9.4.120-mechanical.jar         | None                                     |
       | LCH   | projectred-transportation         | 4.9.4.120                | ProjectRed-1.12.2-4.9.4.120-mechanical.jar         | None                                     |
       | LCH   | quantumflux                       | 2.0.18                   | quantumflux-1.12.2-2.0.18.jar                      | None                                     |
       | LCH   | randomthings                      | 4.2.7.3                  | RandomThings-MC1.12.2-4.2.7.3.jar                  | d72e0dd57935b3e9476212aea0c0df352dd76291 |
       | LCH   | randomtweaks                      | 1.12.2-2.7.1.0           | randomtweaks-1.12.2-2.7.1.0.jar                    | 20d08fb3fe9c268a63a75d337fb507464c8aaccd |
       | LCH   | realdrops                         | 1.2.14                   | RealisticItemDrops-1.2.14.jar                      | None                                     |
       | LCH   | resourceloader                    | 1.5.3                    | ResourceLoader-MC1.12.1-1.5.3.jar                  | d72e0dd57935b3e9476212aea0c0df352dd76291 |
       | LCH   | rflux                             | 0.4.0                    | rflux-1.12-0.4.0.jar                               | None                                     |
       | LCH   | rftoolscontrol                    | 2.0.2                    | rftoolsctrl-1.12-2.0.2.jar                         | None                                     |
       | LCH   | rftoolspower                      | 1.2.0                    | rftoolspower-1.12-1.2.0.jar                        | None                                     |
       | LCH   | roost                             | 2.0.10                   | roost-1.12.2-2.0.10.jar                            | None                                     |
       | LCH   | simplylight                       | 1.12.2-0.8.7             | simplylight-1.12.2-0.8.7.jar                       | None                                     |
       | LCH   | snad                              | 1.12.1-1.7.09.16a        | Snad-1.12.1-1.7.09.16a.jar                         | None                                     |
       | LCH   | stoneblockdimensions              | 1.0.3                    | StoneBlockDimensions-1.0.3.jar                     | None                                     |
       | LCH   | stoneblockutilities               | 2.1.5                    | StoneBlockUtilities-2.1.5.jar                      | None                                     |
       | LCH   | stonechest                        | 1.0.4                    | StoneChest-1.0.4.jar                               | None                                     |
       | LCH   | storagedrawers                    | 1.12.2-5.4.0             | StorageDrawers-1.12.2-5.4.0.jar                    | None                                     |
       | LCH   | tcinventoryscan                   | 2.0.10                   | ThaumicInventoryScanning_1.12.2-2.0.10.jar         | None                                     |
       | LCH   | thaumicjei                        | 1.6.0                    | ThaumicJEI-1.12.2-1.6.0-27.jar                     | None                                     |
       | LCH   | thaumicterminal                   | 1.0.12                   | ThaumicTerminal-1.0.12.jar                         | None                                     |
       | LCH   | thermalcultivation                | 0.3.3                    | ThermalCultivation-1.12.2-0.3.3.12-universal.jar   | 8a6abf2cb9e141b866580d369ba6548732eff25f |
       | LCH   | thermalinnovation                 | 0.3.3                    | ThermalInnovation-1.12.2-0.3.3.12-universal.jar    | 8a6abf2cb9e141b866580d369ba6548732eff25f |
       | LCH   | tinkertoolleveling                | 1.12.2-1.1.0.DEV.b23e769 | TinkerToolLeveling-1.12.2-1.1.0.jar                | None                                     |
       | LCH   | tp                                | 3.2.34                   | tinyprogressions-1.12.2-3.3.34-Release.jar         | None                                     |
       | LCH   | tipthescales                      | 1.0.4                    | TipTheScales-1.12.2-1.0.4.jar                      | None                                     |
       | LCH   | tmel                              | 1.12.2-1.4.0.0           | tmel-1.12.2-1.4.0.0.jar                            | None                                     |
       | LCH   | toastcontrol                      | 1.8.1                    | Toast Control-1.12.2-1.8.1.jar                     | None                                     |
       | LCH   | topaddons                         | 1.12.2-1.11.0            | topaddons-1.12.2-1.11.0.jar                        | None                                     |
       | LCH   | torchmaster                       | 1.8.0.79                 | torchmaster_1.12.2-1.8.0.79.jar                    | 5e9a436b366831c8f54a7e80b015784da69278c6 |
       | LCH   | tramplestopper                    | 1.2.0.4                  | tramplestopper-1.12.2-1.2.0.5-universal.jar        | None                                     |
       | LCH   | translocators                     | 2.5.2.81                 | Translocators-1.12.2-2.5.2.81-universal.jar        | f1850c39b2516232a2108a7bd84d1cb5df93b261 |
       | LCH   | ts2k16                            | 1.2.10                   | TS2K16-1.2.10.jar                                  | None                                     |
       | LCH   | uppers                            | 0.0.6                    | Uppers-0.0.6.jar                                   | None                                     |
       | LCH   | universalmodifiers                | 1.12.2-1.0.16.1          | valkyrielib-1.12.2-2.0.20.1.jar                    | None                                     |
       | LCH   | vanillafix                        | 1.0.10-SNAPSHOT          | VanillaFix-1.0.10-99.jar                           | None                                     |
       | LCH   | voidislandcontrol                 | 1.5.3                    | voidislandcontrol-1.5.3.jar                        | None                                     |
       | LCH   | wanionlib                         | 1.12.2-2.2               | WanionLib-1.12.2-2.2.jar                           | None                                     |
       | LCH   | wct                               | 3.12.93                  | WirelessCraftingTerminal-1.12.2-3.12.93.jar        | 186bc454cd122c9c2f1aa4f95611254bcc543363 |
       | LCH   | wrcbe                             | 2.3.2                    | WR-CBE-1.12.2-2.3.2.33-universal.jar               | f1850c39b2516232a2108a7bd84d1cb5df93b261 |
       | LCH   | xaerominimap                      | 1.18.1                   | Xaeros_Minimap_1.18.1_Forge_1.12.jar               | None                                     |
       | LCH   | xnet                              | 1.8.2                    | xnet-1.12-1.8.2.jar                                | None                                     |
       | LCH   | xtones                            | 1.12-1.0.8-11            | Xtones-1.12-1.0.8-11.jar                           | None                                     |
       | LCH   | yabba                             | 1.1.2.51                 | YABBA-1.1.2.51.jar                                 | None                                     |
       | LCH   | ynot                              | 0.2.4                    | YNot-0.2.4.jar                                     | None                                     |
       | LCH   | reauth                            | 3.6.0                    | reauth-3.6.0.jar                                   | daba0ec4df71b6da841768c49fb873def208a1e3 |
       | LCH   | techreborn_compat                 | 1.0.0                    | TechReborn-ModCompatibility-1.12.2-1.3.2.60.jar    | 8727a3141c8ec7f173b87aa78b9b9807867c4e6b |
       | LCH   | llibrary                          | 1.7.19                   | llibrary-1.7.19-1.12.2.jar                         | b9f30a813bee3b9dd5652c460310cfcd54f6b7ec |
       | LCH   | fluidcows                         | 1.1.21                   | FluidCows-1.1.21.jar                               | None                                     |
       | LCH   | mysticallib                       | 1.12.2-1.3.7             | mysticallib-1.12.2-1.3.7.jar                       | None                                     |
       | LCH   | teslacorelib_registries           | 1.0.15                   | tesla-core-lib-1.12.2-1.0.15.jar                   | None                                     |
       | LCH   | unidict                           | 1.12.2-2.9.2             | UniDict-1.12.2-2.9.2.jar                           | None                                     |
  Loaded coremods (and transformers): SplashAnimationCoremod (SplashAnimation-0.2.1.jar)
                                        pl.asie.splashanimation.core.SplashProgressTransformer
                                      BedPatch (bedpatch-2.2-1.12.2.jar)
                                        com.mordenkainen.bedpatch.BedPatchASM
                                      Do not report to Forge! (If you haven't disabled the FoamFix coremod, try disabling it in the config! Note that this bit of text will still appear.) (foamfix-0.10.5-1.12.2.jar)
                                        pl.asie.foamfix.coremod.FoamFixTransformer
                                      ForgelinPlugin (Forgelin-1.8.4.jar)
                                        
                                      HCASM (HammerCore-1.12.2-2.0.4.7.jar)
                                        com.zeitheron.hammercore.asm.HammerCoreTransformer
                                      RandomPatches (randompatches-1.12.2-1.18.2.1.jar)
                                        com.therandomlabs.randompatches.core.RPTransformer
                                      OpenModsCorePlugin (OpenModsLib-1.12.2-0.12.2.jar)
                                        openmods.core.OpenModsClassTransformer
                                      Inventory Tweaks Coremod (InventoryTweaks-1.64+dev.146.jar)
                                        invtweaks.forge.asm.ContainerTransformer
                                      CXLibraryCore (cxlibrary-1.12.1-1.6.1.jar)
                                        cubex2.cxlibrary.CoreModTransformer
                                      CTMCorePlugin (CTM-MC1.12.2-0.3.3.22.jar)
                                        team.chisel.ctm.client.asm.CTMTransformer
                                      CorePlugin (SmoothFont-mc1.12.2-2.1.1.jar)
                                        bre.smoothfont.asm.Transformer
                                      p455w0rdc0re (p455w0rdslib-1.12.2-2.2.156.jar)
                                        p455w0rdslib.asm.ClassTransformer
                                      llibrary (llibrary-core-1.0.11-1.12.2.jar)
                                        net.ilexiconn.llibrary.server.core.plugin.LLibraryTransformer
                                        net.ilexiconn.llibrary.server.core.patcher.LLibraryRuntimePatcher
                                      MekanismCoremod (Mekanism-1.12.2-9.8.1.383.jar)
                                        mekanism.coremod.KeybindingMigrationHelper
                                      LoadingPlugin (RandomThings-MC1.12.2-4.2.7.3.jar)
                                        lumien.randomthings.asm.ClassTransformer
                                      EnderCorePlugin (EnderCore-1.12.2-0.5.69-core.jar)
                                        com.enderio.core.common.transform.EnderCoreTransformer
                                        com.enderio.core.common.transform.SimpleMixinPatcher
                                      VanillaFixLoadingPlugin (VanillaFix-1.0.10-99.jar)
                                        
                                      LoadingPlugin (ResourceLoader-MC1.12.1-1.5.3.jar)
                                        lumien.resourceloader.asm.ClassTransformer
                                      MalisisCorePlugin (malisiscore-1.12.2-6.5.1.jar)
                                        
                                      IELoadingPlugin (ImmersiveEngineering-core-0.12-91.jar)
                                        blusunrize.immersiveengineering.common.asm.IEClassTransformer
  GL info: ' Vendor: 'NVIDIA Corporation' Version: '4.6.0 NVIDIA 440.82' Renderer: 'GeForce RTX 2060/PCIe/SSE2'
  OpenModsLib class transformers: [llama_null_fix:FINISHED],[horse_base_null_fix:FINISHED],[pre_world_render_hook:FINISHED],[player_render_hook:FINISHED],[horse_null_fix:FINISHED]
  AE2 Version: stable rv6-stable-7 for Forge 14.23.5.2768
  Pulsar/tconstruct loaded Pulses: - TinkerCommons (Enabled/Forced)
                                   - TinkerWorld (Enabled/Not Forced)
                                   - TinkerTools (Enabled/Not Forced)
                                   - TinkerHarvestTools (Enabled/Forced)
                                   - TinkerMeleeWeapons (Enabled/Forced)
                                   - TinkerRangedWeapons (Enabled/Forced)
                                   - TinkerModifiers (Enabled/Forced)
                                   - TinkerSmeltery (Enabled/Not Forced)
                                   - TinkerGadgets (Enabled/Not Forced)
                                   - TinkerOredict (Enabled/Forced)
                                   - TinkerIntegration (Enabled/Forced)
                                   - TinkerFluids (Enabled/Forced)
                                   - TinkerMaterials (Enabled/Forced)
                                   - TinkerModelRegister (Enabled/Forced)
                                   - chiselIntegration (Enabled/Not Forced)
                                   - chiselsandbitsIntegration (Enabled/Not Forced)
                                   - craftingtweaksIntegration (Enabled/Not Forced)
                                   - theoneprobeIntegration (Enabled/Not Forced)
  Hammer Core Information: FluidDictionary Info: Registered 2 fluids.
                           OreDictionary Info: Registered 1213 names; 4303 stacks.
                           Pastebin Connection: Okay.
                           Dependent Mods:
                               -Expanded Equivalence (expequiv) @12r
  Modpack Information: Modpack: ["FTB Presents Stoneblock 2"] Version: ["1.14.0"] by author ["Sunekaer & Feed The Beast"] !!There was a problem reading the manifest!!
  List of loaded APIs: * actuallyadditionsapi (34) from ActuallyAdditions-1.12.2-r150.jar
                       * ae2wtlib|API (1.0.30) from AE2WTLib-1.12.2-1.0.30.jar
                       * appliedenergistics2|API (rv6) from appliedenergistics2-rv6-stable-7.jar
                       * Base|API (1.0.0) from base-1.12.2-3.13.0.jar
                       * Baubles|API (1.4.0.2) from Baubles-1.12-1.5.2.jar
                       * BetterWithModsAPI (Beta 0.6) from AppleSkin-mc1.12-1.0.9.jar
                       * bigreactors|API (4.0.1) from ExtremeReactors-1.12.2-0.4.5.50.jar
                       * BotaniaAPI (93) from Botania r1.10-362.jar
                       * buildcraftapi_blocks (1.0) from buildcraft-all-7.99.24.2.jar
                       * buildcraftapi_boards (2.0) from buildcraft-all-7.99.24.2.jar
                       * buildcraftapi_core (2.2) from buildcraft-all-7.99.24.2.jar
                       * buildcraftapi_crops (1.1) from buildcraft-all-7.99.24.2.jar
                       * buildcraftapi_enums (1.0) from buildcraft-all-7.99.24.2.jar
                       * buildcraftapi_events (2.0) from buildcraft-all-7.99.24.2.jar
                       * buildcraftapi_facades (1.1) from buildcraft-all-7.99.24.2.jar
                       * buildcraftapi_filler (5.0) from buildcraft-all-7.99.24.2.jar
                       * buildcraftapi_fuels (2.0) from buildcraft-all-7.99.24.2.jar
                       * buildcraftapi_gates (4.1) from buildcraft-all-7.99.24.2.jar
                       * buildcraftapi_items (1.1) from buildcraft-all-7.99.24.2.jar
                       * buildcraftapi_library (2.0) from buildcraft-all-7.99.24.2.jar
                       * buildcraftapi_lists (1.0) from buildcraft-all-7.99.24.2.jar
                       * buildcraftapi_power (1.3) from buildcraft-all-7.99.24.2.jar
                       * buildcraftapi_recipes (3.0) from buildcraft-all-7.99.24.2.jar
                       * buildcraftapi_robotics (3.0) from buildcraft-all-7.99.24.2.jar
                       * buildcraftapi_statements (1.1) from buildcraft-all-7.99.24.2.jar
                       * buildcraftapi_tiles (1.2) from buildcraft-all-7.99.24.2.jar
                       * buildcraftapi_tools (1.0) from buildcraft-all-7.99.24.2.jar
                       * buildcraftapi_transport (5.0) from buildcraft-all-7.99.24.2.jar
                       * chesttransporter|api (2) from ChestTransporter-1.12.2-2.8.8.jar
                       * Chisel-API (0.0.1) from Chisel-MC1.12.2-0.2.1.35.jar
                       * ChiselAPI|Carving (0.0.1) from Chisel-MC1.12.2-0.2.1.35.jar
                       * ChiselsAndBitsAPI (14.25.0) from chiselsandbits-14.33.jar
                       * cofhapi (2.5.0) from CoFHCore-1.12.2-4.6.3.27-universal.jar
                       * commoncapabilities|api (0.0.1) from CommonCapabilities-1.12.2-2.4.4.jar
                       * CraftingTweaks|API (4.1) from CraftingTweaks_1.12.2-8.1.9.jar
                       * ctm-api (0.1.0) from CTM-MC1.12.2-0.3.3.22.jar
                       * ctm-api-events (0.1.0) from CTM-MC1.12.2-0.3.3.22.jar
                       * ctm-api-models (0.1.0) from CTM-MC1.12.2-0.3.3.22.jar
                       * ctm-api-textures (0.1.0) from CTM-MC1.12.2-0.3.3.22.jar
                       * ctm-api-utils (0.1.0) from CTM-MC1.12.2-0.3.3.22.jar
                       * DraconicEvolution|API (1.3) from Draconic-Evolution-1.12.2-2.3.24.349-universal.jar
                       * enderioapi (4.0.0) from EnderIO-1.12.2-5.1.51.jar
                       * enderioapi|addon (4.0.0) from EnderIO-1.12.2-5.1.51.jar
                       * enderioapi|capacitor (4.0.0) from EnderIO-1.12.2-5.1.51.jar
                       * enderioapi|conduits (4.0.0) from EnderIO-1.12.2-5.1.51.jar
                       * enderioapi|farm (4.0.0) from EnderIO-1.12.2-5.1.51.jar
                       * enderioapi|redstone (4.0.0) from EnderIO-1.12.2-5.1.51.jar
                       * enderioapi|teleport (4.0.0) from EnderIO-1.12.2-5.1.51.jar
                       * enderioapi|tools (4.0.0) from EnderIO-1.12.2-5.1.51.jar
                       * enderioapi|upgrades (4.0.0) from EnderIO-1.12.2-5.1.51.jar
                       * ExCompressum|API (1.0) from ExCompressum_1.12.2-3.0.31.jar
                       * farmingforblockheads|api (1.0) from FarmingForBlockheads_1.12.2-3.1.28.jar
                       * HatcheryAPI (1.11.2R1.0.0) from hatchery-1.12.2-2.2.2.jar
                       * iChunUtil API (1.2.0) from iChunUtil-1.12.2-7.2.1.jar
                       * ImmersiveEngineering|API (1.0) from ImmersiveEngineering-0.12-91.jar
                       * ImmersiveEngineering|ImmersiveFluxAPI (1.0) from ImmersiveEngineering-0.12-91.jar
                       * industrialforegoingapi (5) from industrialforegoing-1.12.2-1.12.13-237.jar
                       * integrateddynamics|api (0.2.0) from IntegratedDynamics-1.12.2-1.1.0.jar
                       * jeresources|API (0.9.2.60) from JustEnoughResources-1.12.2-0.9.2.60.jar
                       * JustEnoughItemsAPI (4.13.0) from jei_1.12.2-4.15.0.289.jar
                       * MekanismAPI|core (9.8.1) from Mekanism-1.12.2-9.8.1.383.jar
                       * MekanismAPI|energy (9.8.1) from Mekanism-1.12.2-9.8.1.383.jar
                       * MekanismAPI|gas (9.8.1) from Mekanism-1.12.2-9.8.1.383.jar
                       * MekanismAPI|infuse (9.8.1) from Mekanism-1.12.2-9.8.1.383.jar
                       * MekanismAPI|laser (9.8.1) from Mekanism-1.12.2-9.8.1.383.jar
                       * MekanismAPI|transmitter (9.8.1) from Mekanism-1.12.2-9.8.1.383.jar
                       * MekanismAPI|util (9.0.0) from Mekanism-1.12.2-9.8.1.383.jar
                       * modtogether|api (1.0) from minetogether-1.10.2-2.2.0-RC6.jar
                       * MouseTweaks|API (1.0) from MouseTweaks-2.10-mc1.12.2.jar
                       * openblocks|api (1.2) from OpenBlocks-1.12.2-1.8.1.jar
                       * projecteapi (1.12.2-1.1.0) from ProjectE-1.12-PE1.3.2h.jar
                       * projectred|api (2.1) from ProjectRed-1.12.2-4.9.4.120-Base.jar
                       * PsiAPI (15) from Psi-r1.1-77.jar
                       * reborncoreAPI (3.16.2.473) from RebornCore-1.12.2-3.16.2.473-universal.jar
                       * reborncoreAPI|Power (3.16.2.473) from RebornCore-1.12.2-3.16.2.473-universal.jar
                       * reborncoreAPI|Praescriptum (3.16.2.473) from RebornCore-1.12.2-3.16.2.473-universal.jar
                       * reborncoreAPI|Recipe (3.16.2.473) from RebornCore-1.12.2-3.16.2.473-universal.jar
                       * reborncoreAPI|Tile (3.16.2.473) from RebornCore-1.12.2-3.16.2.473-universal.jar
                       * redstonefluxapi (2.1.0) from RedstoneFlux-1.12-2.1.0.6-universal.jar
                       * sonarapi (1.0.1) from sonarcore-1.12.2-5.0.19-20.jar
                       * StorageDrawersAPI (2.1.0) from StorageDrawers-1.12.2-5.4.0.jar
                       * StorageDrawersAPI|event (2.1.0) from StorageDrawers-1.12.2-5.4.0.jar
                       * StorageDrawersAPI|registry (2.1.0) from StorageDrawers-1.12.2-5.4.0.jar
                       * StorageDrawersAPI|render (2.1.0) from StorageDrawers-1.12.2-5.4.0.jar
                       * StorageDrawersAPI|storage (2.1.0) from StorageDrawers-1.12.2-5.4.0.jar
                       * StorageDrawersAPI|storage-attribute (2.1.0) from StorageDrawers-1.12.2-5.4.0.jar
                       * techrebornAPI (2.24.1.1032) from TechReborn-1.12.2-2.24.1.1032-universal.jar
                       * Thaumcraft|API (6.0.2) from Thaumcraft-1.12.2-6.1.BETA26.jar
                       * theoneprobe_api (1.4.4) from theoneprobe-1.12-1.4.28.jar
                       * valkyrielib.api (1.12.2-2.0.10a) from valkyrielib-1.12.2-2.0.20.1.jar
                       * wct|api (1.1) from WirelessCraftingTerminal-1.12.2-3.12.93.jar
                       * zerocore|API|multiblock (1.10.2-0.0.2) from zerocore-1.12-0.1.2.3.jar
                       * zerocore|API|multiblock|rectangular (1.10.2-0.0.2) from zerocore-1.12-0.1.2.3.jar
                       * zerocore|API|multiblock|tier (1.10.2-0.0.2) from zerocore-1.12-0.1.2.3.jar
                       * zerocore|API|multiblock|validation (1.10.2-0.0.2) from zerocore-1.12-0.1.2.3.jar
  RebornCore: Plugin Engine: 0
              RebornCore Version: 3.16.2.473
              Runtime Debofucsation 1
              RenderEngine: 0
  [Psi] Active spell: None
  Ender IO: No known problems detected.
            
            !!!!!!!!!!!!!!!!!!!!!!!!!!!!!!!!!!!!!!!!!!!!!!!!!!!!!!!!!!!!!!!!!!!!!!!!!!!!!!
            !!!You are looking at the diagnostics information, not at the crash.       !!!
            !!!Scroll up until you see the line with '---- Minecraft Crash Report ----'!!!
            !!!!!!!!!!!!!!!!!!!!!!!!!!!!!!!!!!!!!!!!!!!!!!!!!!!!!!!!!!!!!!!!!!!!!!!!!!!!!!
  Suspected Mods: Tiny Progressions (tp)
  Launched Version: MultiMC5
  LWJGL: 2.9.4
  OpenGL: GeForce RTX 2060/PCIe/SSE2 GL version 4.6.0 NVIDIA 440.82, NVIDIA Corporation
  GL Caps: Using GL 1.3 multitexturing.
           Using GL 1.3 texture combiners.
           Using framebuffer objects because OpenGL 3.0 is supported and separate blending is supported.
           Shaders are available because OpenGL 2.1 is supported.
           VBOs are available because OpenGL 1.5 is supported.
  Using VBOs: Yes
  Is Modded: Definitely; Client brand changed to 'fml,forge'
  Type: Client (map_client.txt)
  Resource Packs: 
  Current Language: English (US)
  Profiler Position: N/A (disabled)
  CPU: 8x Intel(R) Core(TM) i7-9700 CPU @ 3.00GHz
